module gitlab.com/vostelmakh/sso

go 1.21.6

require (
	github.com/golang-jwt/jwt/v5 v5.2.0
	github.com/golang-migrate/migrate/v4 v4.17.0
	github.com/ilyakaznacheev/cleanenv v1.5.0
	github.com/joho/godotenv v1.5.1
	gitlab.com/vostelmakh/protos v0.0.0-20240203164604-ed16dd78c9cc
	golang.org/x/crypto v0.19.0
	google.golang.org/grpc v1.61.0
)

require (
	github.com/BurntSushi/toml v1.2.1 // indirect
	github.com/golang/protobuf v1.5.3 // indirect
	github.com/hashicorp/errwrap v1.1.0 // indirect
	github.com/hashicorp/go-multierror v1.1.1 // indirect
	github.com/mattn/go-sqlite3 v1.14.22 // indirect
	go.uber.org/atomic v1.7.0 // indirect
	golang.org/x/net v0.18.0 // indirect
	golang.org/x/sys v0.17.0 // indirect
	golang.org/x/text v0.14.0 // indirect
	google.golang.org/genproto/googleapis/rpc v0.0.0-20231106174013-bbf56f31fb17 // indirect
	google.golang.org/protobuf v1.32.0 // indirect
	gopkg.in/yaml.v3 v3.0.1 // indirect
	olympos.io/encoding/edn v0.0.0-20201019073823-d3554ca0b0a3 // indirect
)
